persephone • persephone
…
Prediction

The function predict() can take an object that has
already been fitted and calculate the model predictions on a different
dataset.

predict(object, progress_ne)
#> $Corn
#> # A tibble: 6,080 × 20
#>    Crop  Season  Time Date         dayl    gdd   prcp  srad   swe    vp ndvi_s…¹
#>    <chr>  <dbl> <dbl> <date>      <dbl>  <dbl>  <dbl> <dbl> <dbl> <dbl>    <dbl>
#>  1 Corn    2002     1 2002-03-31 44722. 0.0653 0.0267  386. 1.46   352.     2.32
#>  2 Corn    2002     1 2002-03-31 44722. 0.0653 0.0267  386. 1.46   352.     2.32
#>  3 Corn    2002     1 2002-03-31 44722. 0.0653 0.0267  386. 1.46   352.     2.32
#>  4 Corn    2002     1 2002-03-31 44722. 0.0653 0.0267  386. 1.46   352.     2.32
#>  5 Corn    2002     1 2002-03-31 44722. 0.0653 0.0267  386. 1.46   352.     2.32
#>  6 Corn    2002     1 2002-03-31 44722. 0.0653 0.0267  386. 1.46   352.     2.32
#>  7 Corn    2002     1 2002-03-31 44722. 0.0653 0.0267  386. 1.46   352.     2.32
#>  8 Corn    2002     1 2002-03-31 44722. 0.0653 0.0267  386. 1.46   352.     2.32
#>  9 Corn    2002     2 2002-04-07 45893. 0.107  0.821   286. 0.197  561.     2.51
#> 10 Corn    2002     2 2002-04-07 45893. 0.107  0.821   286. 0.197  561.     2.51
#> # … with 6,070 more rows, 9 more variables: adayl <dbl>, agdd <dbl>,
#> #   aprcp <dbl>, asrad <dbl>, aswe <dbl>, avp <dbl>, Stage <ord>,
#> #   CumPercentage <dbl>, Percentage <dbl>, and abbreviated variable name
#> #   ¹​ndvi_smooth_wt1
#> 
#> $Soybeans
#> # A tibble: 4,900 × 20
#>    Crop     Stage  Season  Time Date       CumPer…¹ Percen…²   dayl    gdd  prcp
#>    <chr>    <ord>   <dbl> <dbl> <date>        <dbl>    <dbl>  <dbl>  <dbl> <dbl>
#>  1 Soybeans Prese…   2002     1 2002-04-21 1   e+ 0 9.79e- 1 48166. 0.0964 0.759
#>  2 Soybeans Plant…   2002     1 2002-04-21 2.07e- 2 1.69e- 2 48166. 0.0964 0.759
#>  3 Soybeans Emerg…   2002     1 2002-04-21 3.81e- 3 3.81e- 3 48166. 0.0964 0.759
#>  4 Soybeans Bloom…   2002     1 2002-04-21 6.63e- 6 6.02e- 6 48166. 0.0964 0.759
#>  5 Soybeans Setti…   2002     1 2002-04-21 6.08e- 7 6.07e- 7 48166. 0.0964 0.759
#>  6 Soybeans Dropp…   2002     1 2002-04-21 6.95e-10 6.63e-10 48166. 0.0964 0.759
#>  7 Soybeans Harve…   2002     1 2002-04-21 3.13e-11 3.13e-11 48166. 0.0964 0.759
#>  8 Soybeans Prese…   2002     2 2002-04-28 1   e+ 0 9.50e- 1 49235. 0.182  0.412
#>  9 Soybeans Plant…   2002     2 2002-04-28 4.95e- 2 4.02e- 2 49235. 0.182  0.412
#> 10 Soybeans Emerg…   2002     2 2002-04-28 9.35e- 3 9.33e- 3 49235. 0.182  0.412
#> # … with 4,890 more rows, 10 more variables: srad <dbl>, swe <dbl>, vp <dbl>,
#> #   ndvi_smooth_wt1 <dbl>, adayl <dbl>, agdd <dbl>, aprcp <dbl>, asrad <dbl>,
#> #   aswe <dbl>, avp <dbl>, and abbreviated variable names ¹​CumPercentage,
#> #   ²​Percentage
…
